<?xml version="1.0" encoding="UTF-8"?>
<glyph name="gdotaccent" format="2">
	<advance width="800"/>
	<unicode hex="0121"/>
	<outline>
		<component base="_partgsmall"/>
		<component base="uni0307" xOffset="800"/>
	</outline>
</glyph>
