<?xml version="1.0" encoding="UTF-8"?>
<glyph name="Iacute" format="2">
	<advance width="800"/>
	<unicode hex="00CD"/>
	<outline>
		<component base="_part.Ismall"/>
		<component base="acutecomb" xOffset="800"/>
	</outline>
</glyph>
