<?xml version="1.0" encoding="UTF-8"?>
<glyph name="uni043F" format="2">
	<advance width="800"/>
	<unicode hex="043F"/>
	<outline>
		<component base="_part.7"/>
		<component base="_part.7" xOffset="600"/>
		<component base="_part.7" xScale="0" xyScale="-1" yScale="0" yxScale="1" xOffset="50" yOffset="750"/>
		<component base="_part.3" xOffset="200"/>
		<component base="_part.3" xScale="-1" xOffset="800" yOffset="-400"/>
		<component base="_part.3" xScale="-1" xOffset="400" yOffset="-400"/>
		<component base="_part.3" xScale="0" xyScale="-1" yScale="0" yxScale="-1" xOffset="750" yOffset="550"/>
		<component base="_part.3" xScale="0" xyScale="-1" yScale="0" yxScale="-1" xOffset="950" yOffset="550"/>
	</outline>
</glyph>
