<?xml version="1.0" encoding="UTF-8"?>
<glyph name="uni042D" format="2">
	<advance width="800"/>
	<unicode hex="042D"/>
	<outline>
		<component base="uni0421" xScale="-1" xOffset="800"/>
	</outline>
</glyph>
